<svg width="44" height="44" viewBox="0 0 44 44" fill="none" xmlns="http://www.w3.org/2000/svg">
<g clip-path="url(#clip0)">
<path d="M24.3697 -0.000976562C15.3791 -0.000976562 8.0647 7.31345 8.0647 16.304V18.9778L3.52478 26.7914C3.46771 26.8897 3.4375 27.0015 3.4375 27.1153V29.8291C3.4375 30.1852 3.7262 30.4736 4.08203 30.4736H8.0647L8.06503 34.8121C8.06503 36.7376 9.63138 38.304 11.5569 38.304H12.8681C13.224 38.304 13.5123 38.0153 13.5123 37.6595C13.5123 37.3033 13.224 37.0149 12.8678 37.0149H11.5569C10.342 37.0149 9.3541 36.0266 9.3541 34.8121V30.4736H11.2007C11.5566 30.4736 11.8453 30.1852 11.8453 29.8291V25.558C11.8453 25.2022 11.5566 24.9135 11.2007 24.9135H9.77707C9.4209 24.9135 9.13254 25.2022 9.13254 25.558C9.13254 25.9142 9.4209 26.2026 9.77707 26.2026H10.5562V29.1845H4.72656V27.6263H6.92938C7.28522 27.6263 7.57391 27.3376 7.57391 26.9817C7.57391 26.6255 7.28522 26.3372 6.92938 26.3372H5.27979L9.25809 19.4897C9.31885 19.391 9.35376 19.2752 9.35376 19.1517V16.304C9.35376 8.02444 16.0898 1.28809 24.3697 1.28809C32.6499 1.28809 39.3859 8.02444 39.3859 16.304V21.9987C39.3859 28.1919 35.6822 33.6533 29.9402 35.9467H28.2849C27.9287 35.9467 27.6403 36.2351 27.6403 36.5913C27.6403 36.9474 27.9287 37.2358 28.2849 37.2358H29.4202V42.71H17.54V38.304H19.0308C19.387 38.304 19.6753 38.0156 19.6753 37.6595C19.6753 37.3036 19.387 37.0149 19.0308 37.0149H16.8971H16.8954H15.4503C15.0945 37.0149 14.8058 37.3033 14.8058 37.6595C14.8058 38.0153 15.0945 38.304 15.4503 38.304H16.2509V43.3545C16.2509 43.7107 16.5396 43.999 16.8954 43.999H30.0647C30.4205 43.999 30.7092 43.7107 30.7092 43.3545V37.025C33.5559 35.8239 35.9883 33.8513 37.7642 31.2987C39.6682 28.5612 40.675 25.3456 40.675 21.9987V16.304C40.675 7.31345 33.3605 -0.000976562 24.3697 -0.000976562Z" fill="white"/>
<path d="M15.885 15.5923C15.885 17.3319 16.408 19.0033 17.398 20.4263C18.2798 21.6939 19.4729 22.6859 20.8677 23.3163V24.6467H20.8006C20.4444 24.6467 20.156 24.935 20.156 25.2912C20.156 25.647 20.4444 25.9357 20.8006 25.9357H20.8677V27.6938C20.8677 28.0496 21.1564 28.3383 21.5122 28.3383H21.5797V29.8294C21.5797 30.1853 21.8684 30.474 22.2242 30.474H26.4953C26.8511 30.474 27.1398 30.1853 27.1398 29.8294V28.3383H27.2073C27.5631 28.3383 27.8518 28.0496 27.8518 27.6938V25.9357H27.9189C28.2751 25.9357 28.5635 25.647 28.5635 25.2912C28.5635 24.935 28.2751 24.6467 27.9189 24.6467H27.8518V23.3163C29.2466 22.6859 30.4397 21.6939 31.3215 20.4263C32.3112 19.0033 32.8345 17.3319 32.8345 15.5923C32.8345 10.9192 29.0328 7.11743 24.3596 7.11743C19.6867 7.11743 15.885 10.9192 15.885 15.5923ZM22.8688 17.6606H23.381L24.6157 18.8956C24.7366 19.0164 24.9007 19.0846 25.0716 19.0846C25.2425 19.0846 25.4066 19.0164 25.5275 18.8956L25.8507 18.5723V22.2441H22.8688V17.6606ZM25.8507 29.1849H22.8688V28.3383H25.8507V29.1849ZM26.5627 27.0492H22.1568V25.9357H26.5627V27.0492ZM22.1568 24.6467V23.5332H26.5627V24.6467H22.1568ZM24.3599 8.40649C28.3221 8.40649 31.5454 11.6302 31.5454 15.5923C31.5454 18.5146 29.822 21.0957 27.1398 22.2193V17.016C27.1398 17.016 27.1398 17.016 27.1398 17.0157V16.304C27.1398 15.9482 26.8511 15.6595 26.4953 15.6595C26.1391 15.6595 25.8507 15.9482 25.8507 16.304V16.7491L25.0716 17.5283L24.1038 16.5601C23.9829 16.4393 23.8188 16.3715 23.6479 16.3715H22.8688V16.304C22.8688 15.9482 22.5804 15.6595 22.2242 15.6595C21.8684 15.6595 21.5797 15.9482 21.5797 16.304V22.2193C18.8975 21.0957 17.1741 18.5146 17.1741 15.5923C17.1741 11.6302 20.3974 8.40649 24.3599 8.40649Z" fill="white"/>
<path d="M25.0041 5.62631V3.49097C25.0041 3.1348 24.7158 2.84644 24.3596 2.84644C24.0037 2.84644 23.7151 3.1348 23.7151 3.49097V5.62631C23.7151 5.98248 24.0037 6.27084 24.3596 6.27084C24.7158 6.27084 25.0041 5.98248 25.0041 5.62631Z" fill="white"/>
<path d="M16.1955 6.60557C15.9438 6.35413 15.5356 6.35413 15.2838 6.60557C15.0323 6.85734 15.0323 7.26554 15.2838 7.51731L16.7941 9.02726C16.92 9.15315 17.0848 9.21626 17.2499 9.21626C17.4148 9.21626 17.5796 9.15315 17.7055 9.02726C17.9572 8.77549 17.9572 8.36762 17.7055 8.11585L16.1955 6.60557Z" fill="white"/>
<path d="M14.3049 15.0369H12.1692C11.8134 15.0369 11.5247 15.3256 11.5247 15.6814C11.5247 16.0376 11.8134 16.3259 12.1692 16.3259H14.3049C14.6607 16.3259 14.9494 16.0376 14.9494 15.6814C14.9494 15.3256 14.6607 15.0369 14.3049 15.0369Z" fill="white"/>
<path d="M16.7944 22.3354L15.2841 23.8457C15.0323 24.0975 15.0323 24.5054 15.2841 24.7571C15.41 24.883 15.5748 24.9458 15.7396 24.9458C15.9048 24.9458 16.0696 24.883 16.1955 24.7571L17.7058 23.2472C17.9576 22.9954 17.9576 22.5872 17.7058 22.3354C17.454 22.0837 17.0458 22.084 16.7944 22.3354Z" fill="white"/>
<path d="M31.014 22.3353C30.7623 22.5871 30.7623 22.9949 31.014 23.2467L32.524 24.757C32.6499 24.8829 32.815 24.9457 32.9799 24.9457C33.1447 24.9457 33.3098 24.8829 33.4357 24.757C33.6875 24.5052 33.6875 24.097 33.4357 23.8453L31.9254 22.3353C31.6737 22.0835 31.2658 22.0835 31.014 22.3353Z" fill="white"/>
<path d="M36.5503 16.3259C36.9065 16.3259 37.1948 16.0372 37.1948 15.6814C37.1948 15.3252 36.9065 15.0369 36.5503 15.0369H34.4146C34.0585 15.0369 33.7701 15.3252 33.7701 15.6814C33.7701 16.0372 34.0585 16.3259 34.4146 16.3259H36.5503Z" fill="white"/>
<path d="M32.524 6.60533L31.0137 8.11562C30.7623 8.36739 30.7623 8.77525 31.014 9.02702C31.1396 9.15291 31.3047 9.21568 31.4696 9.21568C31.6344 9.21568 31.7996 9.15291 31.9254 9.02702L33.4354 7.51674C33.6872 7.26497 33.6872 6.8571 33.4354 6.60533C33.184 6.35356 32.7758 6.35356 32.524 6.60533Z" fill="white"/>
</g>
<defs>
<clipPath id="clip0">
<rect width="44" height="44" fill="white" transform="translate(0 -0.000976562)"/>
</clipPath>
</defs>
</svg>
